simulacao.vcd
$date
     May 06, 2026       09:07:34
$end

$version
 SystemC 3.0.2-Accellera --- Apr  2 2026 17:01:13
$end

$timescale
     1 ns
$end

$scope module SystemC $end
$var wire    1  aaaaa  clock       $end
$var wire   16  aaaab  resultado_final [15:0]  $end
$var wire   16  aaaac  IF_instr [15:0]  $end
$var wire   16  aaaad  IF_ID_instr [15:0]  $end
$var wire   16  aaaae  ID_EX_instr [15:0]  $end
$var wire   16  aaaaf  EX_alu_result [15:0]  $end
$var wire   16  aaaag  EX_MEM_alu_result [15:0]  $end
$var wire   16  aaaah  EX_MEM_store_data [15:0]  $end
$var wire    1  aaaai  EX_MEM_reg_write       $end
$var wire   16  aaaaj  MEM_WB_alu_result [15:0]  $end
$var wire    1  aaaak  MEM_WB_reg_write       $end
$var wire    1  aaaal  rdb_reg_write       $end
$var wire    4  aaaam  rdb_rd [3:0]  $end
$var wire   16  aaaan  rdb_data_in [15:0]  $end
$var wire   16  aaaao  R1 [15:0]  $end
$var wire   16  aaaap  R2 [15:0]  $end
$var wire   16  aaaaq  R3 [15:0]  $end
$var wire   16  aaaar  R4 [15:0]  $end
$var wire   16  aaaas  R5 [15:0]  $end
$var wire   16  aaaat  R6 [15:0]  $end
$var wire   16  aaaau  R7 [15:0]  $end
$var wire   10  aaaav  pc_addr [9:0]  $end
$var wire   10  aaaaw  pc_target [9:0]  $end
$var wire    1  aaaax  pc_load_branch_jump       $end
$var wire    1  aaaay  IF_pc_enable       $end
$var wire    1  aaaaz  force_nop       $end
$var wire    1  aaaba  stall       $end
$var wire    2  aaabb  forward_b [1:0]  $end
$var wire    2  aaabc  forward_a [1:0]  $end
$upscope $end
$enddefinitions  $end

$comment
All initial values are dumped below at time 0 sec = 0 timescale units.
$end

$dumpvars
1aaaaa
b0 aaaab
b111001100000101 aaaac
b1111000000000000 aaaad
b1111000000000000 aaaae
b0 aaaaf
b0 aaaag
b0 aaaah
0aaaai
b0 aaaaj
0aaaak
0aaaal
b0 aaaam
b0 aaaan
b0 aaaao
b0 aaaap
b0 aaaaq
b0 aaaar
b0 aaaas
b0 aaaat
b0 aaaau
b0 aaaav
b0 aaaaw
0aaaax
1aaaay
0aaaaz
0aaaba
b0 aaabb
b0 aaabc
$end

#5
0aaaaa

#10
1aaaaa

#15
0aaaaa

#20
1aaaaa
b111001000100001 aaaac
b111001100000101 aaaad
b1 aaaav

#25
0aaaaa

#30
1aaaaa
b1011001000001010 aaaac
b111001000100001 aaaad
b111001100000101 aaaae
b101 aaaaf
b10 aaaav
b1100000101 aaaaw

#35
0aaaaa

#40
1aaaaa
b1111000000000000 aaaac
b1011001000001010 aaaad
b111001000100001 aaaae
b100001 aaaaf
b101 aaaag
1aaaai
b11 aaaav
b1000100001 aaaaw

#45
0aaaaa

#50
1aaaaa
b101 aaaab
b1111000000000000 aaaad
b1011001000001010 aaaae
b1010 aaaaf
b100001 aaaag
b101 aaaaj
1aaaak
1aaaal
b11 aaaam
b101 aaaan
b100 aaaav
b1000001010 aaaaw
b1 aaabb

#55
0aaaaa

#60
1aaaaa
b100001 aaaab
b1010000100001010 aaaac
b1111000000000000 aaaae
b0 aaaaf
b1010 aaaag
b100001 aaaah
0aaaai
b100001 aaaaj
b10 aaaam
b100001 aaaan
b101 aaaaq
b101 aaaav
b0 aaaaw
b0 aaabb

#65
0aaaaa

#70
1aaaaa
b1010 aaaab
b101010000010011 aaaac
b1010000100001010 aaaad
b0 aaaag
b0 aaaah
b1010 aaaaj
0aaaak
0aaaal
b1010 aaaan
b100001 aaaap
b110 aaaav

#75
0aaaaa

#80
1aaaaa
b0 aaaab
b0 aaaac
b101010000010011 aaaad
b1010000100001010 aaaae
b1010 aaaaf
b0 aaaaj
b0 aaaam
b0 aaaan
b111 aaaav
b100001010 aaaaw
0aaaay
1aaaba

#85
0aaaaa

#90
1aaaaa
b1111000000000000 aaaae
b0 aaaaf
b1010 aaaag
1aaaai
b0 aaaaw
1aaaay
0aaaba

#95
0aaaaa

#100
1aaaaa
b100001 aaaab
b0 aaaad
b101010000010011 aaaae
b100110 aaaaf
b0 aaaag
0aaaai
b1010 aaaaj
1aaaak
1aaaal
b1 aaaam
b100001 aaaan
b1000 aaaav
b10011 aaaaw
b10 aaabc

#105
0aaaaa

#110
1aaaaa
b0 aaaab
b0 aaaae
b0 aaaaf
b100110 aaaag
b101 aaaah
1aaaai
b0 aaaaj
0aaaak
0aaaal
b0 aaaam
b0 aaaan
b100001 aaaao
b1001 aaaav
b0 aaaaw
b0 aaabc

#115
0aaaaa

#120
1aaaaa
b100110 aaaab
b0 aaaag
b0 aaaah
b100110 aaaaj
1aaaak
1aaaal
b100 aaaam
b100110 aaaan
b1010 aaaav

#125
0aaaaa

#130
1aaaaa
b0 aaaab
b0 aaaaj
b0 aaaam
b0 aaaan
b100110 aaaar
b1011 aaaav

#135
0aaaaa

#140
1aaaaa
b1100 aaaav

#145
0aaaaa

#150
1aaaaa
b1101 aaaav

#155
0aaaaa

#160
1aaaaa
b1110 aaaav

#165
0aaaaa

#170
1aaaaa
b1111 aaaav

#175
0aaaaa

#180
1aaaaa
b10000 aaaav

#185
0aaaaa

#190
1aaaaa
b10001 aaaav

#195
0aaaaa

#200
1aaaaa
b10010 aaaav

#205
0aaaaa

#210
1aaaaa
b10011 aaaav

#215
0aaaaa

#220
1aaaaa
b10100 aaaav

#225
0aaaaa

#230
1aaaaa
b10101 aaaav

#235
0aaaaa

#240
1aaaaa
b10110 aaaav

#245
0aaaaa

#250
1aaaaa
b10111 aaaav

#255
0aaaaa

#260
1aaaaa
b11000 aaaav

#265
0aaaaa

#270
1aaaaa
b11001 aaaav

#275
0aaaaa

#280
1aaaaa
b11010 aaaav

#285
0aaaaa

#290
1aaaaa
b11011 aaaav

#295
0aaaaa

#300
1aaaaa
b11100 aaaav

#305
0aaaaa

#310
1aaaaa
b11101 aaaav

